<?xml version="1.0" encoding="iso-8859-1"?>
<!-- Generator: Adobe Illustrator 18.0.0, SVG Export Plug-In . SVG Version: 6.00 Build 0)  -->
<!DOCTYPE svg PUBLIC "-//W3C//DTD SVG 1.1//EN" "http://www.w3.org/Graphics/SVG/1.1/DTD/svg11.dtd">
<svg version="1.1" id="Camada_1" xmlns="http://www.w3.org/2000/svg" xmlns:xlink="http://www.w3.org/1999/xlink" x="0px" y="0px"
	 viewBox="0 0 10.625 10.739" style="enable-background:new 0 0 10.625 10.739;" xml:space="preserve">
<g>
	<defs>
		<rect id="SVGID_9_" x="2343.396" y="-228.96" width="3458.519" height="1948.747"/>
	</defs>
	<clipPath id="SVGID_2_">
		<use xlink:href="#SVGID_9_"  style="overflow:visible;"/>
	</clipPath>
	<g style="clip-path:url(#SVGID_2_);">
		
			<image style="overflow:visible;" width="2726" height="768" xlink:href="FC7FB6F7.jpg"  transform="matrix(2.5374 0 0 2.5374 -1115.123 -228.9603)">
		</image>
	</g>
</g>
<g>
	<g>
		<defs>
			<circle id="SVGID_116_" cx="5.313" cy="5.311" r="4.977"/>
		</defs>
		<clipPath id="SVGID_4_">
			<use xlink:href="#SVGID_116_"  style="overflow:visible;"/>
		</clipPath>
		<g style="clip-path:url(#SVGID_4_);">
			<defs>
				<rect id="SVGID_118_" x="-4.236" y="-5.647" width="18.224" height="18.224"/>
			</defs>
			<clipPath id="SVGID_6_">
				<use xlink:href="#SVGID_118_"  style="overflow:visible;"/>
			</clipPath>
		</g>
		<g style="clip-path:url(#SVGID_4_);">
			<rect x="-5.247" y="-6.178" style="fill:#EDEDED;" width="20.177" height="16.86"/>
			<path style="fill:#F6F6F6;" d="M15.554,4.826l-3.861-0.488l-0.784,0.515c0,0-1.542-0.725-1.658-0.748
				C9.135,4.082,8.274,4.082,8.274,4.082c-0.14,0.163-2.598-1.073-2.598-1.073L2.856,4.105L1.739,3.663L1.391,4.244L0.47,4.482
				l-2.591-1.075L-3.18,4.163c0,0-1.197-0.012-1.313-0.012c-0.116,0-1.884,1.698-1.884,1.698s6.814,2.186,7.116,2.14
				c0.302-0.047,14.303-0.628,14.303-0.628L15.554,4.826z"/>
			<path style="fill:#FCFCFC;" d="M-6.144,5.803l3.861-0.488L-1.5,5.83c0,0,1.542-0.725,1.658-0.748
				c0.116-0.023,0.977-0.023,0.977-0.023c0.14,0.163,2.598-1.073,2.598-1.073l2.821,1.096L7.67,4.64l0.349,0.581L8.94,5.459
				l2.591-1.075l1.059,0.756c0,0,1.197-0.012,1.313-0.012s1.884,1.698,1.884,1.698S8.972,9.012,8.67,8.965
				C8.368,8.919-5.633,8.338-5.633,8.338L-6.144,5.803z"/>
			
				<ellipse transform="matrix(0.9927 0.1206 -0.1206 0.9927 0.9518 0.3663)" style="fill:#99C440;" cx="-2.55" cy="8.044" rx="7.822" ry="2.147"/>
			<g>
				
					<ellipse transform="matrix(0.9999 -0.0123 0.0123 0.9999 -0.1085 -0.0248)" style="fill:#B5CE3D;" cx="-2.07" cy="8.812" rx="7.822" ry="2.147"/>
			</g>
			
				<ellipse transform="matrix(-0.9927 0.1206 -0.1206 -0.9927 27.6574 14.1299)" style="fill:#99C440;" cx="13.401" cy="7.902" rx="7.822" ry="2.147"/>
			<g>
				<g>
					
						<ellipse transform="matrix(0.9999 -0.0123 0.0123 0.9999 -0.1086 0.1567)" style="fill:#B5CE3D;" cx="12.687" cy="8.908" rx="7.822" ry="2.147"/>
				</g>
			</g>
			<ellipse style="fill:#A7B335;" cx="4.916" cy="9.585" rx="15.596" ry="2.117"/>
			<ellipse style="fill:#B9BE42;" cx="4.916" cy="11.739" rx="11.758" ry="4.282"/>
			<ellipse style="fill:#54706C;" cx="4.723" cy="11.714" rx="10.253" ry="4.357"/>
			<rect x="-0.204" y="7.397" style="fill:#54706C;" width="11.219" height="3.909"/>
			<rect x="9.027" y="8.812" style="fill:#A9BDBD;" width="3.514" height="0.539"/>
		</g>
		<rect x="-4.236" y="-5.647" style="clip-path:url(#SVGID_4_);fill:none;" width="18.224" height="18.224"/>
		<g style="clip-path:url(#SVGID_4_);">
			<defs>
				<rect id="SVGID_120_" x="-4.236" y="-5.647" width="18.224" height="18.224"/>
			</defs>
			<clipPath id="SVGID_8_">
				<use xlink:href="#SVGID_120_"  style="overflow:visible;"/>
			</clipPath>
		</g>
	</g>
	<g>
		<path style="fill:#FFFFFF;" d="M5.312,10.466c-2.82,0-5.115-2.295-5.115-5.115s2.295-5.115,5.115-5.115s5.115,2.295,5.115,5.115
			S8.133,10.466,5.312,10.466z M5.312,0.48c-2.686,0-4.871,2.185-4.871,4.871c0,2.686,2.185,4.871,4.871,4.871
			s4.871-2.185,4.871-4.871C10.184,2.665,7.998,0.48,5.312,0.48z"/>
	</g>
</g>
<g id="store_23_">
	<rect x="2.399" y="4.139" style="fill:#3AAA35;" width="5.802" height="3.854"/>
	<rect x="6.378" y="5.197" style="fill:#FFFDF7;" width="1.491" height="2.699"/>
	<polygon style="fill:#FFFDF7;" points="3.513,2.619 3.11,2.619 2.122,4.09 2.702,4.09 	"/>
	<polygon style="fill:#F0C31B;" points="3.918,2.619 3.513,2.619 2.702,4.09 3.282,4.09 	"/>
	<polygon style="fill:#FFFDF7;" points="4.322,2.619 3.918,2.619 3.282,4.09 3.862,4.09 	"/>
	<polygon style="fill:#F0C31B;" points="4.726,2.619 4.322,2.619 3.862,4.09 4.442,4.09 	"/>
	<polygon style="fill:#FFFDF7;" points="5.13,2.619 4.726,2.619 4.442,4.09 5.023,4.09 	"/>
	<polygon style="fill:#F0C31B;" points="5.534,2.619 5.13,2.619 5.023,4.09 5.602,4.09 	"/>
	<polygon style="fill:#FFFDF7;" points="5.938,2.619 5.534,2.619 5.602,4.09 6.183,4.09 	"/>
	<polygon style="fill:#F0C31B;" points="6.342,2.619 5.938,2.619 6.183,4.09 6.763,4.09 	"/>
	<polygon style="fill:#FFFDF7;" points="6.746,2.619 6.342,2.619 6.763,4.09 7.343,4.09 	"/>
	<polygon style="fill:#F0C31B;" points="7.15,2.619 6.746,2.619 7.343,4.09 7.923,4.09 	"/>
	<polygon style="fill:#FFFDF7;" points="7.554,2.619 7.15,2.619 7.923,4.09 8.503,4.09 	"/>
	<polygon style="fill:#D1D2D2;" points="3.513,2.619 3.11,2.619 2.122,4.09 2.702,4.09 	"/>
	<polygon style="fill:#BD212E;" points="3.905,2.619 3.501,2.619 2.689,4.09 3.269,4.09 	"/>
	<polygon style="fill:#D1D2D2;" points="4.322,2.619 3.918,2.619 3.282,4.09 3.862,4.09 	"/>
	<polygon style="fill:#BD212E;" points="4.713,2.619 4.309,2.619 3.849,4.09 4.43,4.09 	"/>
	<polygon style="fill:#D1D2D2;" points="5.13,2.619 4.726,2.619 4.442,4.09 5.023,4.09 	"/>
	<polygon style="fill:#BD212E;" points="5.521,2.619 5.117,2.619 5.01,4.09 5.59,4.09 	"/>
	<polygon style="fill:#D1D2D2;" points="5.938,2.619 5.534,2.619 5.602,4.09 6.183,4.09 	"/>
	<polygon style="fill:#BD212E;" points="6.329,2.619 5.925,2.619 6.17,4.09 6.75,4.09 	"/>
	<polygon style="fill:#D1D2D2;" points="6.746,2.619 6.342,2.619 6.763,4.09 7.343,4.09 	"/>
	<polygon style="fill:#BD212E;" points="7.138,2.619 6.733,2.619 7.331,4.09 7.911,4.09 	"/>
	<polygon style="fill:#D1D2D2;" points="7.554,2.619 7.15,2.619 7.923,4.09 8.503,4.09 	"/>
	<path style="fill:#FFFDF7;" d="M2.702,4.517c-0.16,0.16-0.42,0.16-0.58,0c0-0.142,0-0.284,0-0.427c0.193,0,0.387,0,0.58,0
		C2.702,4.232,2.702,4.375,2.702,4.517z"/>
	<path style="fill:#E6292A;" d="M3.282,4.517c-0.16,0.16-0.42,0.16-0.58,0c0-0.142,0-0.284,0-0.427c0.193,0,0.387,0,0.58,0
		C3.282,4.232,3.282,4.375,3.282,4.517z"/>
	<path style="fill:#FFFDF7;" d="M3.862,4.517c-0.16,0.16-0.42,0.16-0.58,0c0-0.142,0-0.284,0-0.427c0.193,0,0.387,0,0.58,0
		C3.862,4.232,3.862,4.375,3.862,4.517z"/>
	<path style="fill:#E6292A;" d="M4.442,4.517c-0.16,0.16-0.42,0.16-0.58,0c0-0.142,0-0.284,0-0.427c0.194,0,0.387,0,0.58,0
		C4.442,4.232,4.442,4.375,4.442,4.517z"/>
	<path style="fill:#FFFDF7;" d="M5.022,4.517c-0.16,0.16-0.42,0.16-0.58,0c0-0.142,0-0.284,0-0.427c0.193,0,0.387,0,0.58,0
		C5.022,4.232,5.022,4.375,5.022,4.517z"/>
	<path style="fill:#E6292A;" d="M5.602,4.517c-0.16,0.16-0.42,0.16-0.58,0c0-0.142,0-0.284,0-0.427c0.194,0,0.387,0,0.58,0
		C5.602,4.232,5.602,4.375,5.602,4.517z"/>
	<path style="fill:#FFFDF7;" d="M6.182,4.517c-0.16,0.16-0.419,0.16-0.58,0c0-0.142,0-0.284,0-0.427c0.193,0,0.387,0,0.58,0
		C6.182,4.232,6.182,4.375,6.182,4.517z"/>
	<path style="fill:#E6292A;" d="M6.763,4.517c-0.16,0.16-0.42,0.16-0.581,0c0-0.142,0-0.284,0-0.427c0.194,0,0.387,0,0.581,0
		C6.763,4.232,6.763,4.375,6.763,4.517z"/>
	<path style="fill:#FFFDF7;" d="M7.343,4.517c-0.16,0.16-0.42,0.16-0.58,0c0-0.142,0-0.284,0-0.427c0.193,0,0.386,0,0.58,0
		C7.343,4.232,7.343,4.375,7.343,4.517z"/>
	<path style="fill:#E6292A;" d="M7.923,4.517c-0.16,0.16-0.42,0.16-0.58,0c0-0.142,0-0.284,0-0.427c0.194,0,0.387,0,0.58,0
		C7.923,4.232,7.923,4.375,7.923,4.517z"/>
	<path style="fill:#FFFDF7;" d="M8.503,4.517c-0.16,0.16-0.42,0.16-0.58,0c0-0.142,0-0.284,0-0.427c0.193,0,0.387,0,0.58,0
		C8.503,4.232,8.503,4.375,8.503,4.517z"/>
	<g>
		<rect x="2.888" y="5.173" style="fill:#FFFDF7;" width="3.225" height="1.558"/>
		<g>
			<rect x="2.888" y="5.925" style="fill:#424042;" width="3.225" height="0.056"/>
		</g>
		<g>
			<rect x="4.462" y="5.173" style="fill:#424042;" width="0.077" height="1.558"/>
		</g>
	</g>
	<rect x="2.213" y="7.964" style="fill:#006633;" width="6.188" height="0.383"/>
</g>
</svg>
