<?xml version="1.0" encoding="iso-8859-1"?>
<!-- Generator: Adobe Illustrator 18.0.0, SVG Export Plug-In . SVG Version: 6.00 Build 0)  -->
<!DOCTYPE svg PUBLIC "-//W3C//DTD SVG 1.1//EN" "http://www.w3.org/Graphics/SVG/1.1/DTD/svg11.dtd">
<svg version="1.1" id="Camada_1" xmlns="http://www.w3.org/2000/svg" xmlns:xlink="http://www.w3.org/1999/xlink" x="0px" y="0px"
	 viewBox="0 0 50 50" style="enable-background:new 0 0 50 50;" xml:space="preserve">
<g>
	<g id="XMLID_39_">
		<path style="fill:#FFFFFF;" d="M25,47.314C12.695,47.314,2.686,37.305,2.686,25S12.695,2.686,25,2.686S47.314,12.695,47.314,25
			S37.305,47.314,25,47.314z M25,5.068C14.009,5.068,5.068,14.009,5.068,25S14.009,44.932,25,44.932S44.932,35.991,44.932,25
			S35.991,5.068,25,5.068z"/>
	</g>
	<g id="XMLID_36_">
		<path id="XMLID_37_" style="fill:#FFFFFF;" d="M21.709,36.086V24.492h-1.968v-3.445h1.968v-0.584c0-1.814,0.554-3.813,1.907-5.044
			c1.169-1.107,2.799-1.507,4.152-1.507c1.046,0,1.845,0.123,2.491,0.308l-0.185,3.598c-0.4-0.123-0.892-0.215-1.507-0.215
			c-1.537,0-2.183,1.199-2.183,2.676v0.769h3.013v3.445h-2.983v11.594H21.709z"/>
	</g>
</g>
<g>
	<defs>
		<rect id="SVGID_23_" x="-635.684" y="-637.625" width="223.333" height="681.31"/>
	</defs>
	<clipPath id="SVGID_2_">
		<use xlink:href="#SVGID_23_"  style="overflow:visible;"/>
	</clipPath>
	<linearGradient id="SVGID_4_" gradientUnits="userSpaceOnUse" x1="-576.5994" y1="-282.5154" x2="12.2293" y2="-282.5154">
		<stop  offset="0" style="stop-color:#89BF51"/>
		<stop  offset="1" style="stop-color:#61B237"/>
	</linearGradient>
	<polygon style="clip-path:url(#SVGID_2_);fill:url(#SVGID_4_);" points="12.229,20.125 -576.599,20.125 -373.893,-585.155 
		12.229,-585.155 	"/>
</g>
</svg>
