<?xml version="1.0" encoding="iso-8859-1"?>
<!-- Generator: Adobe Illustrator 18.0.0, SVG Export Plug-In . SVG Version: 6.00 Build 0)  -->
<!DOCTYPE svg PUBLIC "-//W3C//DTD SVG 1.1//EN" "http://www.w3.org/Graphics/SVG/1.1/DTD/svg11.dtd">
<svg version="1.1" id="Camada_1" xmlns="http://www.w3.org/2000/svg" xmlns:xlink="http://www.w3.org/1999/xlink" x="0px" y="0px"
	 viewBox="0 0 50 33.717" style="enable-background:new 0 0 50 33.717;" xml:space="preserve">
<g>
	<g>
		<g>
			<path style="fill:#FFFFFF;" d="M41.96,31.709H8.272c-0.248,0-0.483-0.108-0.646-0.295c-0.162-0.187-0.235-0.436-0.199-0.681
				c0.031-0.216,0.047-0.432,0.047-0.644c0-2.452-1.995-4.447-4.447-4.447c-0.017,0-0.034,0.001-0.051,0.001l-0.053,0.002
				c-0.231,0.006-0.452-0.082-0.617-0.243C2.141,25.24,2.048,25.02,2.048,24.79V8.049c0-0.23,0.093-0.45,0.257-0.61
				C2.469,7.278,2.69,7.19,2.921,7.195l0.055,0.002c0.017,0.001,0.033,0.001,0.05,0.001c2.393,0,4.345-1.872,4.443-4.262
				c0.019-0.458,0.395-0.819,0.853-0.819H41.91c0.458,0,0.834,0.361,0.853,0.819c0.096,2.339,2.005,4.21,4.346,4.26
				c0.464,0.01,0.836,0.389,0.836,0.854v16.74c0,0.465-0.371,0.844-0.836,0.854c-2.399,0.051-4.351,2.045-4.351,4.445
				c0,0.212,0.016,0.429,0.047,0.644c0.036,0.245-0.037,0.494-0.199,0.681C42.444,31.601,42.208,31.709,41.96,31.709z M9.181,30.001
				h31.87c0.022-1.588,0.645-3.084,1.759-4.22c0.935-0.953,2.13-1.566,3.427-1.77V8.828c-2.581-0.41-4.638-2.43-5.092-5.004H9.088
				C8.622,6.496,6.457,8.547,3.756,8.864v15.112C6.779,24.334,9.137,26.893,9.181,30.001z"/>
			<path style="fill:#FFFFFF;" d="M41.96,32.556H8.272c-0.494,0-0.962-0.214-1.286-0.588c-0.323-0.373-0.468-0.868-0.397-1.357
				c0.024-0.173,0.038-0.35,0.038-0.522c0-1.985-1.616-3.6-3.601-3.6c-0.514,0.006-0.992-0.168-1.312-0.481
				c-0.326-0.319-0.513-0.762-0.513-1.217V8.049c0-0.455,0.186-0.898,0.51-1.216c0.322-0.314,0.744-0.486,1.19-0.486
				c0.002,0,0.004,0,0.007,0c2.06,0,3.636-1.514,3.715-3.447C6.659,1.987,7.405,1.27,8.322,1.27H41.91
				c0.917,0,1.663,0.717,1.699,1.633c0.078,1.891,1.623,3.406,3.518,3.446c0.918,0.02,1.665,0.783,1.665,1.701V24.79
				c0,0.918-0.747,1.681-1.665,1.701c-1.942,0.041-3.522,1.655-3.522,3.598c0,0.172,0.014,0.349,0.039,0.525
				c0.07,0.486-0.074,0.981-0.398,1.355C42.923,32.342,42.454,32.556,41.96,32.556z M2.909,23.095L2.895,24.79
				c3.051,0.004,5.426,2.379,5.426,5.298c0,0.251-0.019,0.508-0.055,0.763l33.695,0.01c0.001,0,0.003,0,0.005-0.002
				c-0.036-0.263-0.055-0.52-0.055-0.771c0-2.857,2.324-5.231,5.18-5.292l0.007-16.747c-2.794-0.066-5.068-2.293-5.182-5.078
				L8.322,2.964C8.2,5.816,5.876,8.045,3.026,8.045v0.05l0.631-0.074c2.307-0.27,4.197-2.056,4.596-4.343l0.122-0.701h33.48
				l0.123,0.699c0.394,2.226,2.158,3.96,4.392,4.314l0.714,0.114v16.629l-0.716,0.113c-1.128,0.177-2.149,0.706-2.954,1.527
				c-0.96,0.978-1.498,2.271-1.516,3.639l-0.012,0.836H8.345l-0.012-0.836c-0.036-2.65-2.047-4.884-4.677-5.195l-0.748-0.089V23.095
				z M9.966,29.154h30.3c0.199-1.491,0.871-2.877,1.94-3.967c0.889-0.907,1.979-1.542,3.185-1.863V9.513
				c-2.373-0.636-4.245-2.478-4.919-4.841H9.762C9.068,7.108,7.07,9.005,4.603,9.575v13.69C7.43,23.918,9.579,26.282,9.966,29.154z"
				/>
		</g>
		<g>
			<path style="fill:#FFFFFF;" d="M20.39,17.372c-1.087,0-1.963-0.345-2.627-1.034c-0.664-0.689-0.996-1.616-0.996-2.782
				c0-1.272,0.353-2.281,1.06-3.027c0.707-0.746,1.65-1.119,2.83-1.119c1.13,0,2.012,0.338,2.648,1.013
				c0.636,0.675,0.954,1.624,0.954,2.846c0,1.258-0.352,2.256-1.055,2.995C22.501,17.003,21.563,17.372,20.39,17.372z M31.549,9.624
				l-9.955,15.284h-2.601l9.933-15.284H31.549z M20.593,11.287c-1.038,0-1.556,0.721-1.556,2.164c0,1.364,0.494,2.046,1.482,2.046
				c1.009,0,1.513-0.71,1.513-2.132C22.032,11.979,21.552,11.287,20.593,11.287z M29.908,25.121c-1.087,0-1.963-0.345-2.627-1.034
				c-0.664-0.689-0.996-1.616-0.996-2.782c0-1.272,0.353-2.281,1.06-3.027c0.707-0.746,1.65-1.119,2.83-1.119
				c1.137,0,2.021,0.334,2.654,1.002c0.632,0.668,0.949,1.613,0.949,2.835c0,1.258-0.352,2.259-1.055,3.006
				C32.018,24.748,31.08,25.121,29.908,25.121z M30.078,19.035c-1.03,0-1.545,0.721-1.545,2.164c0,1.364,0.501,2.046,1.503,2.046
				c1.009,0,1.513-0.71,1.513-2.132c0-0.661-0.135-1.172-0.405-1.535C30.874,19.216,30.519,19.035,30.078,19.035z"/>
		</g>
	</g>
</g>
</svg>
